{
  "data": [
    {
      "schema": 1678379807899,
      "allowList": [],
      "stripList": [
        "gclid",
        "dclid",
        "msclkid",
        "_openstat",
        "yclid",
        "wickedid",
        "twclid",
        "_hsenc",
        "__hssc",
        "__hstc",
        "__hsfp",
        "hsctatracking",
        "wbraid",
        "gbraid",
        "ysclid"
      ],
      "id": "85078bad-f31e-4d93-bb8a-81088b25d6dd",
      "last_modified": 1678736907773
    },
    {
      "schema": 1649695008608,
      "allowList": [],
      "stripList": [
        "mc_eid",
        "oly_anon_id",
        "oly_enc_id",
        "__s",
        "vero_id",
        "_hsenc",
        "mkt_tok",
        "fbclid"
      ],
      "id": "76495cfc-fac9-4079-9b5f-9ff0784484de",
      "last_modified": 1649762862679
    }
  ],
  "timestamp": 1678736907773
}
